<svg width="512" height="512" viewBox="0 0 512 512" fill="none" xmlns="http://www.w3.org/2000/svg">
<path d="M401.92 256C401.92 362.27 315.78 448.41 209.51 448.41L147.19 258.965L209.51 63.59C315.78 63.59 401.92 149.73 401.92 256Z" fill="#04303E"/>
<path d="M209.51 63.59V448.41C103.24 448.41 17.1 362.27 17.1 256C17.1 149.73 103.24 63.59 209.51 63.59Z" fill="#07485E"/>
<path d="M390.77 354.14C374.09 385.25 349.74 411.63 319.9 430.84C286.95 452.03 248.82 463.4 209.51 463.74L195.723 256L209.51 48.26C248.75 48.6 286.82 59.93 319.72 81.05C349.52 100.18 373.88 126.48 390.59 157.51L385.68 165.86H362.02L355.6 157.51C336.46 128.92 309.41 106.62 278.3 93.05C296.12 111.14 311.24 132.97 322.62 157.51L318.28 166.03H295.98L289.04 157.51C272.55 127.41 249.51 103 222.78 87.26V157.51H258.04L263.13 163.48V183.56L258.04 187.51H222.78V240.76H258.04L265 244.6V266.04L258.04 270.76H222.78V324.14H258.04L266.36 328.41V347.31L258.04 354.14H222.78V424.54C248.55 408.87 271.46 384.14 287.94 354.14L294.62 345.94H318.62L321.59 354.14C309.94 379.19 294.67 401.37 276.79 419.61C308.66 406.06 336.37 383.37 355.83 354.14L361.34 348.33H386.87L390.77 354.14Z" fill="#0D90BC"/>
<path d="M209.51 463.74V48.26V463.74ZM209.51 48.26C94.95 48.26 0 141.44 0 256C0 370.56 94.95 463.74 209.51 463.74V48.26ZM138.1 92.4C119.71 110.9 104.33 133.13 92.97 157.51H59.7C78.83 128.86 106.07 106.06 138.1 92.4ZM43.57 187.51H81.38C76.04 204.73 72.65 222.64 71.54 240.76H30.5C32.09 222.04 36.61 204.14 43.57 187.51ZM30.46 270.76H71.77C73.15 288.61 76.71 306.61 82.28 324.14H43.43C36.48 307.47 32.01 289.52 30.46 270.76ZM59.47 354.14H93.98C97.98 362.72 102.48 371.08 107.45 379.17C116.8 394.38 127.61 408.16 139.5 420.19C106.73 406.55 78.89 383.37 59.47 354.14ZM192.78 424.58C166.35 408.62 143.65 383.66 127.46 354.14H192.78V424.58ZM192.78 324.14H113.85C107.58 307.01 103.44 288.99 101.86 270.76H192.78V324.14ZM192.78 240.76H101.6C102.88 222.51 106.77 204.55 112.86 187.51H192.78V240.76ZM192.78 157.51H126.37C142.51 128.13 165.53 103.32 192.78 87.27V157.51Z" fill="#0FA8DC"/>
<path d="M512 157.51V354.14H385.02L355.043 294.965L385.02 255.75L391.601 241.155L493.991 161.939L512 157.51Z" fill="#FCB63A"/>
<path d="M385.02 255.75V354.14H258.04V157.51L274.466 161.734L379.725 243.169L385.02 255.75Z" fill="#FFCC00"/>
<path d="M512 157.51L385.02 255.75L362.191 197.178L385.02 157.51H512Z" fill="#FFD944"/>
<path d="M385.02 157.51V255.75L258.04 157.51H385.02Z" fill="#FFE377"/>
</svg>
